<svg version="1.1" id="Layer_1" xmlns="http://www.w3.org/2000/svg" xmlns:xlink="http://www.w3.org/1999/xlink" x="0px" y="0px"
	 width="135px" height="135px" viewBox="0 0 135 135" enable-background="new 0 0 135 135" xml:space="preserve">
<g>
	<g>
		<g>
			<g>
				<path fill="#20D397" d="M7.237,129.54v-26.859v-1.082V79.935c0-10.568,8.569-19.139,19.138-19.139h5.266
					c10.57,0,19.14,8.57,19.14,19.139v8.109l6.155,15.77H50.78v7.789c0,8.646-5.735,9.982-13.608,10.184v7.754"/>
				<path fill="#11AAA6" d="M47.325,103.813v7.789c0,8.646-5.736,9.982-13.607,10.184v7.754H7.237v-26.859v-1.082V79.935
					c0-10.568,8.569-19.139,19.138-19.139h1.812c10.569,0,19.139,8.57,19.139,19.139v8.109l6.155,15.77h-2.7H47.325z"/>
				
					<path fill="none" stroke="#33363A" stroke-width="3" stroke-linecap="round" stroke-linejoin="round" stroke-miterlimit="10" d="
					M40.808,91.903c1.593,1.592,4.176,1.592,5.769,0"/>
				
					<path fill="none" stroke="#33363A" stroke-width="3" stroke-linecap="round" stroke-linejoin="round" stroke-miterlimit="10" d="
					M40.808,110.021c1.593,1.592,4.176,1.592,5.769,0"/>
				<g>
					
						<path fill="none" stroke="#33363A" stroke-width="3" stroke-linecap="round" stroke-linejoin="round" stroke-miterlimit="10" d="
						M7.237,129.54v-26.859v-1.082V79.935c0-10.568,8.569-19.139,19.138-19.139h5.266c10.57,0,19.14,8.57,19.14,19.139v8.109
						l6.155,15.77H50.78v7.789c0,8.646-5.735,9.982-13.608,10.184v7.754"/>
					
						<line fill="none" stroke="#33363A" stroke-width="3" stroke-linecap="round" stroke-linejoin="round" stroke-miterlimit="10" x1="30.768" y1="121.786" x2="37.496" y2="121.786"/>
					
						<line fill="none" stroke="#33363A" stroke-width="3" stroke-linecap="round" stroke-linejoin="round" stroke-miterlimit="10" x1="26.29" y1="121.786" x2="26.29" y2="121.786"/>
					
						<line fill="none" stroke="#33363A" stroke-width="3" stroke-linecap="round" stroke-linejoin="round" stroke-miterlimit="10" x1="21.678" y1="121.786" x2="21.678" y2="121.786"/>
					
						<line fill="none" stroke="#33363A" stroke-width="3" stroke-linecap="round" stroke-linejoin="round" stroke-miterlimit="10" x1="16.438" y1="121.786" x2="16.438" y2="121.786"/>
				</g>
			</g>
			<g>
				
					<line fill="none" stroke="#33363A" stroke-width="3" stroke-linecap="round" stroke-linejoin="round" stroke-miterlimit="10" x1="5.047" y1="129.54" x2="60.74" y2="129.54"/>
				
					<line fill="none" stroke="#33363A" stroke-width="3" stroke-linecap="round" stroke-linejoin="round" stroke-miterlimit="10" x1="70.204" y1="129.54" x2="76.053" y2="129.54"/>
			</g>
		</g>
		<g>
			<g>
				<path fill="#FFBC00" d="M127.763,129.54v-26.859v-1.082V79.935c0-10.568-8.569-19.139-19.139-19.139h-5.265
					c-10.57,0-19.14,8.57-19.14,19.139v8.109l-6.155,15.77h6.155v7.789c0,8.646,5.735,9.982,13.608,10.184v7.754"/>
				<path fill="#FF9700" d="M87.675,103.813v7.789c0,8.646,5.736,9.982,13.608,10.184v7.754h26.479v-26.859v-1.082V79.935
					c0-10.568-8.569-19.139-19.139-19.139h-1.81c-10.571,0-19.14,8.57-19.14,19.139v8.109l-6.155,15.77h2.7H87.675z"/>
				
					<path fill="none" stroke="#33363A" stroke-width="3" stroke-linecap="round" stroke-linejoin="round" stroke-miterlimit="10" d="
					M88.423,91.905c1.592-1.594,4.175-1.594,5.769,0"/>
				
					<path fill="none" stroke="#33363A" stroke-width="3" stroke-linecap="round" stroke-linejoin="round" stroke-miterlimit="10" d="
					M88.424,110.021c1.592-1.592,4.176-1.592,5.768,0"/>
				<g>
					
						<path fill="none" stroke="#33363A" stroke-width="3" stroke-linecap="round" stroke-linejoin="round" stroke-miterlimit="10" d="
						M127.763,129.54v-26.859v-1.082V79.935c0-10.568-8.569-19.139-19.139-19.139h-5.265c-10.57,0-19.14,8.57-19.14,19.139v8.109
						l-6.155,15.77h6.155v7.789c0,8.646,5.735,9.982,13.608,10.184v7.754"/>
					
						<line fill="none" stroke="#33363A" stroke-width="3" stroke-linecap="round" stroke-linejoin="round" stroke-miterlimit="10" x1="104.232" y1="121.786" x2="97.504" y2="121.786"/>
					
						<line fill="none" stroke="#33363A" stroke-width="3" stroke-linecap="round" stroke-linejoin="round" stroke-miterlimit="10" x1="108.709" y1="121.786" x2="108.709" y2="121.786"/>
					
						<line fill="none" stroke="#33363A" stroke-width="3" stroke-linecap="round" stroke-linejoin="round" stroke-miterlimit="10" x1="113.321" y1="121.786" x2="113.321" y2="121.786"/>
					
						<line fill="none" stroke="#33363A" stroke-width="3" stroke-linecap="round" stroke-linejoin="round" stroke-miterlimit="10" x1="118.562" y1="121.786" x2="118.562" y2="121.786"/>
				</g>
			</g>
			<g>
				
					<line fill="none" stroke="#33363A" stroke-width="3" stroke-linecap="round" stroke-linejoin="round" stroke-miterlimit="10" x1="129.953" y1="129.54" x2="74.261" y2="129.54"/>
				
					<line fill="none" stroke="#33363A" stroke-width="3" stroke-linecap="round" stroke-linejoin="round" stroke-miterlimit="10" x1="64.797" y1="129.54" x2="58.947" y2="129.54"/>
			</g>
		</g>
	</g>
	<g>
		<g>
			<path fill="#FFBC00" d="M77.214,25.86c13.837,0,25.095,11.259,25.095,25.096c0,4.789-1.347,9.418-3.899,13.438l2.396,8.398
				c0.142,0.498,0.004,1.031-0.362,1.396c-0.365,0.367-0.9,0.504-1.397,0.363l-8.395-2.398c-4.02,2.551-8.65,3.898-13.438,3.898
				c-13.839,0-25.096-11.258-25.096-25.096C52.118,37.119,63.375,25.86,77.214,25.86z"/>
			<path fill="#FF9700" d="M77.214,25.86c-7.005,0-13.346,2.887-17.902,7.531l40.942,40.941c0.064-0.047,0.131-0.088,0.189-0.145
				c0.366-0.365,0.504-0.898,0.362-1.396l-2.396-8.398c2.553-4.02,3.899-8.648,3.899-13.438
				C102.309,37.119,91.051,25.86,77.214,25.86z"/>
			<path fill="#11AAA6" d="M57.786,5.46c-13.836,0-25.095,11.26-25.095,25.096c0,4.789,1.347,9.42,3.899,13.439l-2.396,8.396
				c-0.142,0.498-0.004,1.033,0.363,1.398c0.364,0.365,0.9,0.504,1.396,0.361l8.396-2.398c4.019,2.553,8.65,3.9,13.437,3.9
				c13.838,0,25.097-11.26,25.097-25.098C82.883,16.72,71.624,5.46,57.786,5.46z"/>
			<path fill="#20D397" d="M57.786,5.46c-7.251,0-13.789,3.096-18.375,8.03l35.442,35.442c4.935-4.585,8.029-11.124,8.029-18.377
				C82.883,16.72,71.624,5.46,57.786,5.46z"/>
			<path fill="#FFFFFF" d="M52.118,50.956c0,1.406,0.121,2.785,0.346,4.129c1.736,0.375,3.518,0.568,5.322,0.568
				c13.838,0,25.097-11.26,25.097-25.098c0-1.404-0.122-2.779-0.344-4.121c-1.718-0.373-3.499-0.574-5.325-0.574
				C63.375,25.86,52.118,37.119,52.118,50.956z"/>
			<path fill="#D8E5EA" d="M77.214,25.86c-7.005,0-13.346,2.887-17.902,7.531l15.542,15.541c4.935-4.585,8.029-11.124,8.029-18.377
				c0-1.404-0.122-2.779-0.344-4.121C80.821,26.062,79.04,25.86,77.214,25.86z"/>
		</g>
		<g>
			<path fill="none" stroke="#33363A" stroke-width="3" stroke-linecap="round" stroke-linejoin="round" stroke-miterlimit="10" d="
				M77.214,25.86c13.837,0,25.095,11.259,25.095,25.096c0,4.789-1.347,9.418-3.899,13.438l2.396,8.398
				c0.142,0.498,0.004,1.031-0.362,1.396c-0.365,0.367-0.9,0.504-1.397,0.363l-8.395-2.398c-4.02,2.551-8.65,3.898-13.438,3.898
				c-13.839,0-25.096-11.258-25.096-25.096C52.118,37.119,63.375,25.86,77.214,25.86z"/>
			<path fill="none" stroke="#33363A" stroke-width="3" stroke-linecap="round" stroke-linejoin="round" stroke-miterlimit="10" d="
				M57.786,5.46c-13.836,0-25.095,11.26-25.095,25.096c0,4.789,1.347,9.42,3.899,13.439l-2.396,8.396
				c-0.142,0.498-0.004,1.033,0.363,1.398c0.364,0.365,0.9,0.504,1.396,0.361l8.396-2.398c4.019,2.553,8.65,3.9,13.437,3.9
				c13.838,0,25.097-11.26,25.097-25.098C82.883,16.72,71.624,5.46,57.786,5.46z"/>
			<path fill="none" stroke="#33363A" stroke-width="3" stroke-linecap="round" stroke-linejoin="round" stroke-miterlimit="10" d="
				M52.118,50.956c0,1.406,0.121,2.785,0.346,4.129c1.736,0.375,3.518,0.568,5.322,0.568c13.838,0,25.097-11.26,25.097-25.098
				c0-1.404-0.122-2.779-0.344-4.121c-1.718-0.373-3.499-0.574-5.325-0.574C63.375,25.86,52.118,37.119,52.118,50.956z"/>
		</g>
	</g>
</g>
</svg>
